{
  "type": "object",
  "required": [
    "title",
    "degree_level",
    "tags",
    "problem_description",
    "deadline",
    "availability_list",
    "stud_owner_id",
    "silver_credit_cost",
    "gold_credit_cost"
  ],
  "additionalProperties": false,
  "properties": {
    "stud_id": {
      "anyOf": [
        {
          "type": "string",
          "pattern": "^[1-9]+[0-9]*$"
        },
        {
          "type": "number",
          "minimum": 1
        }
      ]
    },
    "title": {
      "type": "string"
    },
    "degree_level": {
      "type": "string"
    },
    "tags": {
      "type": "array",
      "items": {
        "type": "string",
        "minItems": 1
      }
    },
    "problem_description": {
      "type": "string"
    },
    "attachments": {
      "type": "array",
      "items": {
        "type": "string",
        "pattern": "^(https?://(?:www\\.|(?!www))[a-zA-Z0-9][a-zA-Z0-9-]+[a-zA-Z0-9]\\.[^\\s]{2,}|www\\.[a-zA-Z0-9][a-zA-Z0-9-]+[a-zA-Z0-9]\\.[^\\s]{2,}|https?://(?:www\\.|(?!www))[a-zA-Z0-9]+\\.[^\\s]{2,}|www\\.[a-zA-Z0-9]+\\.[^\\s]{2,}).*$"
      }
    },
    "deadline": {
      "type": "string",
      "format": "date-time"
    },
    "stud_owner_id": {
      "type": "number",
      "minimum": 1
    },
    "availability_list": {
      "type": "array",
      "items": {
        "type": "string",
        "pattern": "^([\\[\\(])(['\"])((((19|20)([2468][048]|[13579][26]|0[48])|2000)-02-29|((19|20)[0-9]{2}-(0[4678]|1[02])-(0[1-9]|[12][0-9]|30)|(19|20)[0-9]{2}-(0[1359]|11)-(0[1-9]|[12][0-9]|3[01])|(19|20)[0-9]{2}-02-(0[1-9]|1[0-9]|2[0-8])))\\s([01][0-9]|2[0-3]):([012345][0-9]):([012345][0-9])\\+([0-9]{2}))(['\"]),(['\"])((((19|20)([2468][048]|[13579][26]|0[48])|2000)-02-29|((19|20)[0-9]{2}-(0[4678]|1[02])-(0[1-9]|[12][0-9]|30)|(19|20)[0-9]{2}-(0[1359]|11)-(0[1-9]|[12][0-9]|3[01])|(19|20)[0-9]{2}-02-(0[1-9]|1[0-9]|2[0-8])))\\s([01][0-9]|2[0-3]):([012345][0-9]):([012345][0-9])\\+([0-9]{2}))(['\"])([\\]\\)])$"
      }
    },
    "status": {
      "type": "string",
      "enum": ["AVAILABLE", "SCHEDULED", "FINISHED"]
    },
    "silver_credit_cost": {
      "anyOf": [
        {
          "type": "string",
          "pattern": "^[1-9]+[0-9]*$"
        },
        {
          "type": "number"
        }
      ]
    },
    "gold_credit_cost": {
      "anyOf": [
        {
          "type": "string",
          "pattern": "^[1-9]+[0-9]*$"
        },
        {
          "type": "number"
        }
      ]
    },
    "creation_timestamp" : {
      "type": "string",
      "format": "date-time"
    }
  }
}
