{
  "levels": {
    "error": 0,
    "warn": 1,
    "info": 2,
    "http": 3,
    "verbose": 4,
    "debug": 5,
    "silly": 6
  },
  "colors": {
    "error": "red",
    "info": "white",
    "warn": "yellow",
    "http": "blue",
    "verbose": "green",
    "debug": "magenta",
    "silly": "grey"
  }
}
